<?xml version="1.0" encoding="utf-8"?>
<!-- Generator: Adobe Illustrator 24.2.0, SVG Export Plug-In . SVG Version: 6.00 Build 0)  -->
<svg version="1.1" id="レイヤー_1" xmlns="http://www.w3.org/2000/svg" xmlns:xlink="http://www.w3.org/1999/xlink" x="0px"
	 y="0px" width="45.354px" height="45.354px" viewBox="0 0 45.354 45.354" style="enable-background:new 0 0 45.354 45.354;"
	 xml:space="preserve">
  <style>
	.st0{fill:none;}
  .registration-config{
    fill: none;
    stroke: cmyk(100%,100%,100%,100%);
    stroke-width: 0.3pt
  }
  </style>
<g>
	<g>
		<polyline class="registration-config" points="36.85,2.834 11.338,2.834 11.338,36.85 		"/>
		<polyline class="registration-config" points="2.834,36.85 2.834,11.338 36.85,11.338 		"/>
	</g>
	<rect x="2.834" y="2.834" class="st0" width="42.52" height="42.52"/>
</g>
</svg>
