<svg xmlns="http://www.w3.org/2000/svg" viewBox="0 0 20 16">
  <defs>
    <style>
      .cls-1 {
        fill: #fff;
      }
    </style>
  </defs>
  <g id="シンボル_6_2" data-name="シンボル 6 – 2" transform="translate(-340 -37)">
    <g id="グループ化_33" data-name="グループ化 33" transform="translate(340 36.916)">
      <path id="パス_33" data-name="パス 33" class="cls-1" d="M.506,1.7H19.479c.316,0,.506-.4.506-.8,0-.5-.253-.8-.506-.8H.506C.253,0,0,.4,0,.8,0,1.3.253,1.7.506,1.7Z"/>
      <path id="パス_34" data-name="パス 34" class="cls-1" d="M19.547,22.7H.569C.253,22.7,0,23,0,23.5s.253.8.506.8H19.484c.316,0,.506-.4.506-.8C20.053,23,19.8,22.7,19.547,22.7Z" transform="translate(0 -8.216)"/>
      <path id="パス_35" data-name="パス 35" class="cls-1" d="M19.548,11.3H.6c-.316,0-.505.4-.505.8-.063.5.189.9.442.9H19.485c.316,0,.505-.4.505-.8C20.053,11.7,19.8,11.3,19.548,11.3Z" transform="translate(0 -4.092)"/>
    </g>
  </g>
</svg>
