<svg id="fill" xmlns="http://www.w3.org/2000/svg" width="50" height="50" viewBox="0 0 50 50">
  <title>ctrl-plus-666</title>
  <g>
    <path d="M24.99805,43a18,18,0,1,1,18-18A18.02062,18.02062,0,0,1,24.99805,43Zm0-34a16,16,0,1,0,16,16A16.01833,16.01833,0,0,0,24.99805,9Z" style="fill: #666"/>
    <rect x="11.99805" y="24.18717" width="26" height="1.625" style="fill: #666"/>
    <rect x="24.18555" y="11.99967" width="1.625" height="26" style="fill: #666"/>
  </g>
</svg>
