<svg id="fill" xmlns="http://www.w3.org/2000/svg" width="50" height="50" viewBox="0 0 50 50">
  <title>ctrl-rotate-666</title>
  <g>
    <path d="M25,15c-.08454,0-.16578.00653-.25.0072v1.90454c.08392-.00079.16577-.007.25-.007,8.18542,0,15.10138,3.70722,15.10138,8.09528S33.18542,33.09521,25,33.09521,9.89862,29.388,9.89862,25c0-2.28815,1.89093-4.38519,4.85138-5.874V16.98212C10.629,18.79059,7.99383,21.67755,7.99383,25c0,5.6073,7.47028,10,17.00617,10s17.00616-4.3927,17.00616-10S34.53588,15,25,15Z" style="fill: #666"/>
    <polygon points="28.75 23.071 21.679 16 28.75 8.929 30.164 10.343 24.507 16 30.164 21.657 28.75 23.071" style="fill: #666"/>
  </g>
</svg>
