﻿<?xml version="1.0" encoding="utf-8" standalone="no"?>
<svg xmlns="http://www.w3.org/2000/svg" xmlns:xlink="http://www.w3.org/1999/xlink" width="420" height="275" viewBox="0 0 420 275">
  <g groupType="layer" groupName="image">
    <image preserveAspectRatio="none" width="420" height="275" x="0" y="0" xlink:href="zzivpi33059a.png" />
  </g>
  <g groupType="layer" groupName="hotspot001">
    <path d="M 272.100877192982,162.11961722488 C 272.048130326191,167.095824452256 272.048130326191,167.095824452256 272.100877192982,167.645933014354 C 272.180186645462,168.473068567963 273.262146677372,175.085504426719 273.679824561404,175.803827751196 C 273.923736669312,176.223308319671 276.879153357176,178.980344278969 277.364035087719,178.961722488038 C 277.661544936566,178.9502966787 279.267340538765,177.075218887475 279.469298245614,176.856459330144 C 280.102432435563,176.170651606906 284.787116787282,170.326731519537 285.521929824561,169.751196172249 C 286.07783764125,169.315786643422 291.160783865676,166.79423271366 291.837719298246,166.593301435407 C 293.843614522303,165.997901827082 310.551312158141,164.48724491302 312.627192982456,164.224880382775 C 313.576106383991,164.104949982185 321.189476379846,163.199208992659 322.100877192982,162.909090909091 C 322.86353350551,162.666321334363 328.758393110993,159.888283824602 329.206140350877,159.224880382775 C 329.516697875542,158.764743697619 329.882813038046,154.232946992401 329.732456140351,153.698564593301 C 329.625542132545,153.318582265489 327.680618167373,150.776450110493 327.364035087719,150.540669856459 C 326.936680501703,150.222390771666 322.888611383533,148.792123280101 322.364035087719,148.698564593301 C 321.431383928182,148.532225362145 313.836651835101,148.653604363421 312.890350877193,148.698564593301 C 311.78133751187,148.751255542653 302.944460237174,149.662813624708 301.837719298246,149.751196172249 C 301.022828093267,149.816272070439 294.496885947452,150.251182512337 293.679824561404,150.277511961722 C 293.390501058265,150.286835286337 291.060752208615,150.189171126431 290.785087719298,150.277511961722 C 289.922776591416,150.553852543374 284.115875679397,154.965299232553 283.416666666667,155.540669856459 C 282.913558457483,155.95467150538 279.178085774376,159.594531486478 278.679824561404,160.014354066986 C 278.377955848707,160.268701181791 275.896410073792,162.257948369874 275.521929824561,162.382775119617 C 275.222345625177,162.482636519412 272.364035087719,162.382775119617 272.364035087719,162.382775119617 Z" stroke="#FF0000" stroke-opacity="100" stroke-width="1" stroke-dasharray="0" stroke-miterlimit="10" fill="#FF0000" fill-opacity="0.4" />
    <circle cx="299.315789473684" cy="158.263157894737" r="5.5" stroke="#FF0000" stroke-opacity="100" stroke-width="1" stroke-dasharray="0" stroke-miterlimit="10" fill="#FF0000" fill-opacity="0.4" />
    <text id="caption0010001" font-family="'Arial'" font-size="13.28" fill="#000000" enclose="False" lineSpacePercentage="100" x="3.9429824561398" y="192.792880382775">
      <a xlink:href="zzivpi33060a">
        <tspan dy="0">方向指示レバー／ランプスイッチ</tspan>
      </a>
    </text>
  </g>
  <g groupType="layer" groupName="hotspot002">
    <path d="M 272.627192982456,82.6459330143541 C 282.574561403509,82.6459330143541 282.574561403509,82.6459330143541 283.679824561404,82.6459330143541 C 284.785087719298,82.6459330143541 293.652244034011,82.4119491398742 294.732456140351,82.6459330143541 C 295.043224058021,82.713248202745 297.400587501135,83.7386574995798 297.627192982456,83.9617224880383 C 298.02147331803,84.3498425722976 299.895040191117,88.4176828895398 299.995614035088,88.9617224880383 C 300.057987285306,89.2991215240672 299.787417217397,92.0440897023554 299.732456140351,92.3827751196172 C 299.64555504729,92.9182837840333 298.756132474117,97.2227494900857 298.416666666667,97.6459330143541 C 298.232565484107,97.8754365035062 296.069327366387,98.885742754056 295.785087719298,98.9617224880383 C 295.352146787315,99.0774513709688 291.738457514069,99.3607328817957 291.311403508772,99.2248803827751 C 290.669106765189,99.0205558321419 286.607965370372,95.3898636183627 286.048245614035,95.0143540669857 C 285.823251244874,94.8634079306923 283.909905694959,93.8416375613904 283.679824561404,93.6985645933014 C 283.326480269356,93.4788420291814 280.628933094475,91.5201722387409 280.258771929825,91.3301435406699 C 279.91074168627,91.15147613742 276.896868124743,90.2360869442494 276.574561403509,90.0143540669857 C 276.374675260385,89.8768411740801 275.111940906287,88.3851626947905 274.995614035088,88.1722488038278 C 274.863884295492,87.9311429344486 274.28906453173,85.8026018032944 274.206140350877,85.5406698564593 C 274.130789320414,85.3026591591909 273.416666666667,83.1722488038278 273.416666666667,83.1722488038278 Z" stroke="#0000FF" stroke-opacity="100" stroke-width="1" stroke-dasharray="0" stroke-miterlimit="10" fill="#0000FF" fill-opacity="0.4" />
    <circle cx="290.631578947369" cy="89.5789473684211" r="5.5" stroke="#0000FF" stroke-opacity="1" stroke-width="1" stroke-dasharray="0" stroke-miterlimit="10" fill="#0000FF" fill-opacity="0.4" />
    <text id="caption0020001" font-family="'Arial'" font-size="13.28" fill="#000000" enclose="False" lineSpacePercentage="100" x="4.73245614035077" y="206.740248803827">
      <a xlink:href="ch04se05041805020613">
        <tspan dy="0">VSC OFF スイッチ</tspan>
      </a>
    </text>
  </g>
  <g groupType="layer" groupName="hotspot003">
    <path d="M 164.995614035088,80.2775119617225 C 157.653827018427,80.5275102512388 157.653827018427,80.5275102512388 156.837719298246,80.5406698564593 C 155.390539005941,80.5640054050134 143.790625874849,80.2963052265763 142.364035087719,80.5406698564593 C 141.896430884801,80.6207670567278 138.218901021519,81.7773833067176 137.890350877193,82.1196172248804 C 137.64246838948,82.377823761931 136.876775839164,85.1848736646559 136.837719298246,85.5406698564593 C 136.765702595177,86.1967256180728 137.120893504571,91.5060394071496 137.364035087719,92.1196172248804 C 137.550263997363,92.5895735626584 140.094017700931,95.797854858665 140.521929824561,96.066985645933 C 141.116333388691,96.4408294571622 146.664727777066,97.5823399525413 147.364035087719,97.6459330143541 C 147.941198697424,97.6984186677269 152.628967584278,97.6292079068711 153.15350877193,97.3827751196172 C 153.861674423919,97.0500743907418 157.907478473799,92.1873685611555 158.416666666667,91.5933014354067 C 158.989039191745,90.9255174891289 163.484157266576,85.501546191768 163.94298245614,84.7511961722488 C 164.078191746458,84.5300786400463 164.941810376103,82.636309498973 164.995614035088,82.3827751196172 C 165.039317506144,82.1768349917705 164.995614035088,80.2775119617225 164.995614035088,80.2775119617225 Z" stroke="#0000FF" stroke-opacity="100" stroke-width="1" stroke-dasharray="0" stroke-miterlimit="10" fill="#0000FF" fill-opacity="0.4" />
    <circle cx="148.263157894737" cy="89.8421052631579" r="5.5" stroke="#0000FF" stroke-opacity="1" stroke-width="1" stroke-dasharray="0" stroke-miterlimit="10" fill="#0000FF" fill-opacity="0.4" />
    <text id="caption0030001" font-family="'Arial'" font-size="13.28" fill="#000000" enclose="False" lineSpacePercentage="100" x="4.99561403508723" y="223.056038277512">
      <a xlink:href="ch04se050409">
        <tspan dy="0">ドライブモードセレクトスイッチ</tspan>
      </a>
    </text>
  </g>
  <g groupType="layer" groupName="hotspot004">
    <path d="M 123.94298245614,148.172248803828 C 127.248639028916,147.178873521517 127.248639028916,147.178873521517 127.627192982456,147.11961722488 C 128.433587175655,146.99338968698 134.968966785538,146.844146425199 135.785087719298,146.856459330144 C 137.050566298257,146.875551742563 147.167515528089,147.442409091909 148.416666666667,147.645933014354 C 149.223094834183,147.777324179725 155.550095633183,149.454547649132 156.311403508772,149.751196172249 C 156.892689642674,149.977698062823 161.371438053017,152.231471343932 161.837719298246,152.645933014354 C 162.290531086614,153.048422138921 164.913022645807,157.148445885192 165.258771929825,157.645933014354 C 165.571284364849,158.095596748494 167.977096397789,161.793060224399 168.416666666667,162.11961722488 C 168.55026909687,162.218870545574 169.833053184154,162.610228662117 169.995614035088,162.645933014354 C 170.228365752644,162.697053867006 172.191003930654,162.745240604588 172.364035087719,162.909090909091 C 172.712725095726,163.239279789278 173.187271487369,167.166903268588 173.15350877193,167.645933014354 C 173.116644088819,168.168973876105 171.786917411066,172.166521214357 171.574561403509,172.645933014354 C 171.278434443339,173.314464885129 168.480865744306,178.530540124648 167.890350877193,178.961722488038 C 167.694407021879,179.104796844555 165.752487411629,179.563586043683 165.521929824561,179.488038277512 C 165.256096650252,179.400931612542 163.82596230147,177.621309411856 163.679824561404,177.382775119617 C 163.457727189835,177.020255216743 162.304843358549,173.808429118456 162.100877192982,173.435406698565 C 161.88366523352,173.038159780073 159.837521211984,170.014631167308 159.469298245614,169.751196172249 C 159.245849322609,169.59133578519 157.100146008902,169.043067346983 156.837719298246,168.961722488038 C 156.177931318934,168.757206873082 150.932366979579,167.00948391428 150.258771929825,166.856459330144 C 149.50753022966,166.685795295728 143.39305040695,165.887210663457 142.627192982456,165.803827751196 C 141.971073643484,165.732392599529 136.705723609936,165.335116239107 136.048245614035,165.277511961722 C 135.495231894824,165.229060217516 131.074673073617,164.80264173353 130.521929824561,164.751196172249 C 129.943096731668,164.697322346738 125.297733532381,164.360569765425 124.732456140351,164.224880382775 C 124.456855196833,164.158725036018 122.327762787488,163.342117391206 122.100877192982,163.172248803828 C 121.725811312112,162.891438065288 119.402176942955,159.913595254236 119.206140350877,159.488038277512 C 119.037711904871,159.122413168867 118.45633339589,155.941264928931 118.416666666667,155.540669856459 C 118.382956428941,155.200229507862 118.261426945986,152.424472338341 118.416666666667,152.11961722488 C 118.579088857638,151.800657391405 121.017696263365,150.218932652096 121.311403508772,150.014354066986 C 121.544976018291,149.851661677658 123.679824561404,148.435406698565 125.521929824561,147.645933014354 Z" stroke="#0000FF" stroke-opacity="100" stroke-width="1" stroke-dasharray="0" stroke-miterlimit="10" fill="#0000FF" fill-opacity="0.4" />
    <circle cx="142.473684210526" cy="156.157894736842" r="5.5" stroke="#0000FF" stroke-opacity="1" stroke-width="1" stroke-dasharray="0" stroke-miterlimit="10" fill="#0000FF" fill-opacity="0.4" />
    <text id="caption0040001" font-family="'Arial'" font-size="13.28" fill="#000000" enclose="False" lineSpacePercentage="100" x="4.99561403508732" y="239.634985645932">
      <a xlink:href="ch04se030405">
        <tspan dy="0">ワイパー＆ウォッシャースイッチ</tspan>
      </a>
    </text>
  </g>
  <g groupType="layer" groupName="hotspot005">
    <path d="M 58,126.692307692308 C 43.3846153846154,127.461538461538 35.1762820512821,116.944168734492 35.1762820512821,116.694168734492 C 31.9632824112377,113.317075559427 18.3550928935589,77.8549687842496 18.4262820512821,73.1941687344916 C 13.4262820512821,56.1941687344916 25.9262820512821,48.1941687344916 29.6762820512821,46.4441687344916 C 33.1382058987548,43.0914521830516 70.1762820512821,30.1941687344916 74.6762820512821,29.1941687344916 C 91.4262820512821,26.1941687344916 96.6762820512821,35.1941687344916 98.4262820512821,38.1941687344916 C 100.676282051282,42.6941687344916 117.50435385913,82.8459068866746 117.426282051282,88.1941687344916 C 117.391925094717,90.5477712071996 117.615384615385,101.692307692308 106.076923076923,108.615384615385 C 94.5384615384615,113.230769230769 79.9230769230769,121.307692307692 57.6153846153846,126.307692307692 Z" stroke="#0000FF" stroke-opacity="100" stroke-width="1" stroke-dasharray="0" stroke-miterlimit="10" fill="#0000FF" fill-opacity="0.4" />
    <circle cx="67.6538461538462" cy="77.9999999999998" r="5.5" stroke="#0000FF" stroke-opacity="1" stroke-width="1" stroke-dasharray="0" stroke-miterlimit="10" fill="#0000FF" fill-opacity="0.4" />
    <text id="caption0050001" font-family="'Arial'" font-size="13.28" fill="#000000" enclose="False" lineSpacePercentage="100" x="4.99561403508793" y="255.161301435407">
      <a xlink:href="ch03se040401">
        <tspan dy="0">ハンドル位置調整スイッチ</tspan>
      </a>
    </text>
  </g>
  <g groupType="layer" groupName="hotspot006">
    <path d="M 338.679824561404,81.066985645933 C 337.94910684821,86.7489988265852 337.94910684821,86.7489988265852 337.890350877193,87.3827751196172 C 337.810038190259,88.2490747675877 337.414480897292,95.1984348828496 337.364035087719,96.066985645933 C 337.309019381615,97.0142186058706 336.878407923913,104.592713399626 336.837719298246,105.540669856459 C 336.800461722434,106.408690316169 336.423201874766,113.369346667199 336.574561403509,114.224880382775 C 336.623938495894,114.50397590893 337.416802114517,116.66654331539 337.627192982456,116.856459330144 C 337.769404845338,116.984831395499 339.282406380733,117.340643991586 339.469298245614,117.382775119617 C 339.781606397608,117.453178904957 342.310695649317,117.860898452131 342.627192982456,117.909090909091 C 343.388797669653,118.025059030351 349.495870517963,118.85461627679 350.258771929825,118.961722488038 C 351.548686801484,119.142817833503 361.86532695759,120.610790155163 363.15350877193,120.803827751196 C 364.497024417587,121.005157274392 375.234249272454,122.687435188694 376.574561403509,122.909090909091 C 377.180677186266,123.009328030996 382.018730443342,123.876886403681 382.627192982456,123.961722488038 C 383.125138728459,124.031149551493 387.125121618463,124.461686265049 387.627192982456,124.488038277512 C 387.732311447561,124.493555587005 388.584499359169,124.532686213959 388.679824561404,124.488038277512 C 388.865952968867,124.40086039472 389.92058919945,123.10044148095 389.995614035088,122.909090909091 C 390.178379619895,122.442947946272 390.232456140351,118.409090909091 390.258771929825,117.909090909091 C 390.337719298246,116.409090909091 390.973048457165,104.409283588242 391.048245614035,102.909090909091 C 391.103640160502,101.803962782798 391.548238164411,92.9626617611594 391.574561403509,91.8564593301436 C 391.582073816314,91.5407592266535 391.574561403509,89.0143540669856 391.574561403509,88.6985645933014 C 391.574561403509,88.5933014354067 391.591422692246,87.7498369572633 391.574561403509,87.6459330143541 C 391.547901365161,87.4816464556215 391.170363155324,86.1800702918163 391.048245614035,86.066985645933 C 390.809412923369,85.8458191373028 388.210230083217,85.3377861039686 387.890350877193,85.2775119617225 C 386.873528632051,85.0859143602267 378.653416334957,84.0940204468088 377.627192982456,83.9617224880383 C 376.206011640514,83.7785076058945 364.838576652857,82.2970886053798 363.416666666667,82.1196172248804 C 362.101640543986,81.9554862294927 351.573038050759,80.7107793810174 350.258771929825,80.5406698564593 C 349.310222216695,80.4178961364722 341.739197713949,79.1578426120374 340.785087719298,79.2248803827751 C 340.593977033367,79.2383082206773 339.067633105795,79.6057114079311 338.94298245614,79.7511961722488 C 338.804939805508,79.912311277133 338.679824561404,81.8564593301436 338.679824561404,81.8564593301436 Z" stroke="#0000FF" stroke-opacity="100" stroke-width="1" stroke-dasharray="0" stroke-miterlimit="10" fill="#0000FF" fill-opacity="0.4" />
    <circle cx="360.894736842105" cy="99.8421052631579" r="5.5" stroke="#0000FF" stroke-opacity="1" stroke-width="1" stroke-dasharray="0" stroke-miterlimit="10" fill="#0000FF" fill-opacity="0.4" />
    <text id="caption0060001" font-family="'Arial'" font-size="13.28" fill="#000000" enclose="False" lineSpacePercentage="100" x="197.627192982457" y="258.056038277511">
      <a xlink:href="ch03se040405">
        <tspan dy="0">デジタルアウターミラーディスプレイ</tspan>
      </a>
    </text>
  </g>
</svg>