﻿<?xml version="1.0" encoding="utf-8" standalone="no"?>
<svg xmlns="http://www.w3.org/2000/svg" xmlns:xlink="http://www.w3.org/1999/xlink" width="420" height="275" viewBox="0 0 420 275">
  <g groupType="layer" groupName="image">
    <image preserveAspectRatio="none" width="420" height="275" x="0" y="0" xlink:href="zzivpi33064a.png" />
  </g>
  <g groupType="layer" groupName="hotspot001A">
    <path d="M 42.7916666666667,147.409090909091 C 39.5416666666667,147.159090909091 37.7916666666667,146.909090909091 38.0416666666667,144.159090909091 C 38.0416666666667,142.409090909091 37.7916666666667,124.909090909091 38.0416666666667,122.159090909091 C 37.7916666666667,117.909090909091 42.2199528777492,118.60756847347 42.7916666666667,118.409090909091 C 46.2916666666667,118.409090909091 68.7916666666667,118.409090909091 72.7916666666667,118.409090909091 C 77.5416666666667,118.159090909091 76.8101794646431,121.873331004563 77.0416666666667,122.409090909091 C 76.7916666666667,124.659090909091 76.7916666666667,142.409090909091 77.0416666666667,143.909090909091 C 76.8642738047713,144.314253558589 77.5416666666667,146.909090909091 73.0416666666667,146.909090909091 C 69.5416666666667,147.159090909091 42.2916666666667,147.159090909091 43.0416666666667,147.409090909091 Z" stroke="#0000FF" stroke-opacity="100" stroke-width="1" stroke-dasharray="0" stroke-miterlimit="10" fill="#0000FF" fill-opacity="0.4" />
    <circle cx="57.25" cy="132.0" r="5.5" stroke="#0000FF" stroke-opacity="1" stroke-width="1" stroke-dasharray="0" stroke-miterlimit="10" fill="#0000FF" fill-opacity="0.4" />
    <text id="caption0010001" font-family="'Arial'" font-size="13.28" fill="#000000" enclose="False" lineSpacePercentage="100" x="97.7916666666658" y="42.2555">
      <a xlink:href="ch05se030402">
        <tspan>Seat ventilator switches</tspan>
      </a>
    </text>
  </g>
  <g groupType="layer" groupName="hotspot001B">
    <path d="M 349.041666666667,147.159090909091 C 345.791666666667,146.909090909091 344.041666666667,146.659090909091 344.291666666667,143.909090909091 C 344.291666666667,142.159090909091 344.041666666667,124.659090909091 344.291666666667,121.909090909091 C 344.041666666667,117.659090909091 348.469952877749,118.35756847347 349.041666666667,118.159090909091 C 352.541666666667,118.159090909091 375.041666666667,118.159090909091 379.041666666667,118.159090909091 C 383.791666666667,117.909090909091 383.060179464643,121.623331004563 383.291666666667,122.159090909091 C 383.041666666667,124.409090909091 383.041666666667,142.159090909091 383.291666666667,143.659090909091 C 383.114273804771,144.064253558589 383.791666666667,146.659090909091 379.291666666667,146.659090909091 C 375.791666666667,146.909090909091 348.541666666667,146.909090909091 349.291666666667,147.159090909091 Z" stroke="#0000FF" stroke-opacity="100" stroke-width="1" stroke-dasharray="0" stroke-miterlimit="10" fill="#0000FF" fill-opacity="0.4" />
    <circle cx="364.5" cy="132.25" r="5.5" stroke="#0000FF" stroke-opacity="1" stroke-width="1" stroke-dasharray="0" stroke-miterlimit="10" fill="#0000FF" fill-opacity="0.4" />
  </g>
  <g groupType="layer" groupName="hotspot002A">
    <path d="M 107.041666666667,146.909090909091 C 103.791666666667,146.659090909091 102.041666666667,146.409090909091 102.291666666667,143.659090909091 C 102.291666666667,141.909090909091 102.041666666667,124.409090909091 102.291666666667,121.659090909091 C 102.041666666667,117.409090909091 106.469952877749,118.10756847347 107.041666666667,117.909090909091 C 110.541666666667,117.909090909091 133.041666666667,117.909090909091 137.041666666667,117.909090909091 C 141.791666666667,117.659090909091 141.060179464643,121.373331004563 141.291666666667,121.909090909091 C 141.041666666667,124.159090909091 141.041666666667,141.909090909091 141.291666666667,143.409090909091 C 141.114273804771,143.814253558589 141.791666666667,146.409090909091 137.291666666667,146.409090909091 C 133.791666666667,146.659090909091 106.541666666667,146.659090909091 107.291666666667,146.909090909091 Z" stroke="#0000FF" stroke-opacity="100" stroke-width="1" stroke-dasharray="0" stroke-miterlimit="10" fill="#0000FF" fill-opacity="0.4" />
    <circle cx="121.5" cy="131.75" r="5.5" stroke="#0000FF" stroke-opacity="1" stroke-width="1" stroke-dasharray="0" stroke-miterlimit="10" fill="#0000FF" fill-opacity="0.4" />
    <text id="caption0020001" font-family="'Arial'" font-size="13.28" fill="#000000" enclose="False" lineSpacePercentage="100" x="98.0416666666661" y="60.2555">
      <a xlink:href="ch05se030402">
        <tspan>Seat heater switches</tspan>
      </a>
    </text>
  </g>
  <g groupType="layer" groupName="hotspot002B">
    <path d="M 284.541666666667,147.159090909091 C 281.291666666667,146.909090909091 279.541666666667,146.659090909091 279.791666666667,143.909090909091 C 279.791666666667,142.159090909091 279.541666666667,124.659090909091 279.791666666667,121.909090909091 C 279.541666666667,117.659090909091 283.969952877749,118.35756847347 284.541666666667,118.159090909091 C 288.041666666667,118.159090909091 310.541666666667,118.159090909091 314.541666666667,118.159090909091 C 319.291666666667,117.909090909091 318.560179464643,121.623331004563 318.791666666667,122.159090909091 C 318.541666666667,124.409090909091 318.541666666667,142.159090909091 318.791666666667,143.659090909091 C 318.614273804771,144.064253558589 319.291666666667,146.659090909091 314.791666666667,146.659090909091 C 311.291666666667,146.909090909091 284.041666666667,146.909090909091 284.791666666667,147.159090909091 Z" stroke="#0000FF" stroke-opacity="100" stroke-width="1" stroke-dasharray="0" stroke-miterlimit="10" fill="#0000FF" fill-opacity="0.4" />
    <circle cx="299.25" cy="132.0" r="5.5" stroke="#0000FF" stroke-opacity="1" stroke-width="1" stroke-dasharray="0" stroke-miterlimit="10" fill="#0000FF" fill-opacity="0.4" />
  </g>
  <g groupType="layer" groupName="hotspot003">
    <path d="M 157.541666666667,146.909090909091 C 154.291666666667,146.659090909091 152.541666666667,146.409090909091 152.791666666667,143.659090909091 C 152.791666666667,141.909090909091 152.541666666667,124.409090909091 152.791666666667,121.659090909091 C 152.541666666667,117.409090909091 156.969952877749,118.10756847347 157.541666666667,117.909090909091 C 161.041666666667,117.909090909091 183.541666666667,117.909090909091 187.541666666667,117.909090909091 C 192.291666666667,117.659090909091 191.560179464643,121.373331004563 191.791666666667,121.909090909091 C 191.541666666667,124.159090909091 191.541666666667,141.909090909091 191.791666666667,143.409090909091 C 191.614273804771,143.814253558589 192.291666666667,146.409090909091 187.791666666667,146.409090909091 C 184.291666666667,146.659090909091 157.041666666667,146.659090909091 157.791666666667,146.909090909091 Z" stroke="#0000FF" stroke-opacity="100" stroke-width="1" stroke-dasharray="0" stroke-miterlimit="10" fill="#0000FF" fill-opacity="0.4" />
    <circle cx="172.0" cy="131.75" r="5.5" stroke="#0000FF" stroke-opacity="1" stroke-width="1" stroke-dasharray="0" stroke-miterlimit="10" fill="#0000FF" fill-opacity="0.4" />
    <text id="caption0030001" font-family="'Arial'" font-size="13.28" fill="#000000" enclose="False" lineSpacePercentage="100" x="99.7916666666667" y="79.7555">
      <a xlink:href="ch05se030402">
        <tspan>Heated steering wheel switch</tspan>
      </a>
    </text>
  </g>
  <g groupType="layer" groupName="hotspot004">
    <path d="M 235.041666666667,147.159090909091 C 231.791666666667,146.909090909091 230.041666666667,146.659090909091 230.291666666667,143.909090909091 C 230.291666666667,142.159090909091 230.041666666667,124.659090909091 230.291666666667,121.909090909091 C 230.041666666667,117.659090909091 234.469952877749,118.35756847347 235.041666666667,118.159090909091 C 238.541666666667,118.159090909091 261.041666666667,118.159090909091 265.041666666667,118.159090909091 C 269.791666666667,117.909090909091 269.060179464643,121.623331004563 269.291666666667,122.159090909091 C 269.041666666667,124.409090909091 269.041666666667,142.159090909091 269.291666666667,143.659090909091 C 269.114273804771,144.064253558589 269.791666666667,146.659090909091 265.291666666667,146.659090909091 C 261.791666666667,146.909090909091 234.541666666667,146.909090909091 235.291666666667,147.159090909091 Z" stroke="#0000FF" stroke-opacity="100" stroke-width="1" stroke-dasharray="0" stroke-miterlimit="10" fill="#0000FF" fill-opacity="0.4" />
    <circle cx="250.0" cy="131.5" r="5.5" stroke="#0000FF" stroke-opacity="1" stroke-width="1" stroke-dasharray="0" stroke-miterlimit="10" fill="#0000FF" fill-opacity="0.4" />
    <text id="caption0040001" font-family="'Arial'" font-size="13.28" fill="#000000" enclose="False" lineSpacePercentage="100" x="101.291666666667" y="99.2555">
      <a xlink:href="ch05se0604010509">
        <tspan>Rear sunshade switch</tspan>
      </a>
    </text>
  </g>
</svg>