﻿<?xml version="1.0" encoding="utf-8" standalone="no"?>
<svg xmlns="http://www.w3.org/2000/svg" xmlns:xlink="http://www.w3.org/1999/xlink" width="420" height="275" viewBox="0 0 420 275">
  <g groupType="layer" groupName="image">
    <image preserveAspectRatio="none" width="420" height="275" x="0" y="0" xlink:href="zzivpi33058a.png" />
  </g>
  <g groupType="layer" groupName="hotspot001">
    <circle cx="229.915071770334" cy="36.1016746411484" r="5.5" stroke="#0000FF" stroke-opacity="100" stroke-width="1" stroke-dasharray="0" stroke-miterlimit="10" fill="#0000FF" fill-opacity="0.4" />
    <text id="caption0010001" font-family="'Arial'" font-size="13.28" fill="#000000" enclose="False" lineSpacePercentage="100" x="260.454545454545" y="36.8407272727273">
      <a xlink:href="ch02se010405">
        <tspan dy="0">ヘッドアップディスプレイスイッチ</tspan>
      </a>
    </text>
    <rect x="218.074561403508" y="25.1985645933014" width="24.5789473684215" height="23" stroke="#0000FF" stroke-opacity="100" stroke-width="1" stroke-dasharray="0" stroke-miterlimit="10" fill="#0000FF" fill-opacity="0.4" />
  </g>
  <g groupType="layer" groupName="hotspot002">
    <path d="M 197.087121212121,200.545454545455 C 192.337121212121,201.295454545455 192.087121212122,197.045454545455 192.087121212121,196.545454545455 C 192.087121212122,195.045454545455 191.471697839532,187.922717766367 191.837121212122,187.045454545455 C 191.837121212122,182.295454545455 195.545588198369,183.263094144371 196.087121212122,183.045454545455 C 201.087121212122,183.045454545455 219.587121212122,182.545454545455 223.337121212122,182.795454545455 C 228.337121212122,183.295454545455 227.812105366764,185.5398694539 228.087121212122,186.045454545455 C 228.55316541306,186.902223360697 228.645152697229,194.870053765154 228.337121212122,195.795454545455 C 229.087121212121,200.545454545455 225.129190886667,200.276362613323 224.587121212122,200.545454545455 C 221.087121212122,201.045454545455 204.837121212121,201.045454545455 196.587121212121,200.795454545455 Z" stroke="#0000FF" stroke-opacity="100" stroke-width="1" stroke-dasharray="0" stroke-miterlimit="10" fill="#0000FF" fill-opacity="0.4" />
    <circle cx="210.045454545455" cy="191.386363636364" r="5.5" stroke="#0000FF" stroke-opacity="1" stroke-width="1" stroke-dasharray="0" stroke-miterlimit="10" fill="#0000FF" fill-opacity="0.4" />
    <text id="caption0020001" font-family="'Arial'" font-size="13.28" fill="#000000" enclose="False" lineSpacePercentage="100" x="247.454545454545" y="196.204363636364">
      <a xlink:href="ch03se0204020504">
        <tspan dy="0">トランクオープナースイッチ</tspan>
      </a>
    </text>
  </g>
  <g groupType="layer" groupName="hotspot003">
    <path d="M 145.314393939394,201.25 C 142.314393939394,201.25 140.814393939394,201 141.064393939394,197.75 C 141.064393939394,197 140.814393939394,187.75 140.814393939394,186 C 140.314393939394,183.25 143.422425049931,183.162358830044 143.814393939394,183 C 147.564393939394,183 169.814393939394,182.75 172.814393939394,183 C 176.314393939393,183 175.891955952397,186.514314772059 176.064393939393,187 C 176.064393939393,188.5 176.064393939394,194.75 176.314393939393,197.75 C 176.564393939393,200.75 173.495356227909,200.538112044049 173.064393939394,200.75 C 169.064393939394,200.75 145.064393939394,201.25 145.064393939394,201.25 Z" stroke="#0000FF" stroke-opacity="100" stroke-width="1" stroke-dasharray="0" stroke-miterlimit="10" fill="#0000FF" fill-opacity="0.4" />
    <circle cx="158.022727272727" cy="191.590909090909" r="5.5" stroke="#0000FF" stroke-opacity="1" stroke-width="1" stroke-dasharray="0" stroke-miterlimit="10" fill="#0000FF" fill-opacity="0.4" />
    <text id="caption0030001" font-family="'Arial'" font-size="13.28" fill="#000000" enclose="False" lineSpacePercentage="100" x="13.2727272727274" y="161.386181818182">
      <a xlink:href="ch04se0404010502">
        <tspan dy="0">給油口オープナースイッチ</tspan>
      </a>
    </text>
  </g>
  <g groupType="layer" groupName="hotspot004">
    <circle cx="193.358851674642" cy="237.377990430621" r="5.5" stroke="#0000FF" stroke-opacity="1" stroke-width="1" stroke-dasharray="0" stroke-miterlimit="10" fill="#0000FF" fill-opacity="0.4" />
    <text id="caption0040001" font-family="'Arial'" font-size="13.28" fill="#000000" enclose="False" lineSpacePercentage="100" x="237.272727272727" y="245.931636363637">
      <a xlink:href="ch06se0204010501">
        <tspan dy="0">ボンネット解除レバー</tspan>
      </a>
    </text>
    <path d="M 166.574561403509,220.014354066986 C 173.206178701106,220.006836444 173.206178701106,220.006836444 173.94298245614,220.014354066986 C 175.232657513986,220.027512646584 185.548698237498,220.234388789342 186.837719298246,220.277511961722 C 187.969888199236,220.315387770092 197.022564173358,220.738979372725 198.15350877193,220.803827751196 C 199.312188540432,220.870266464684 208.576844648452,221.485993521537 209.732456140351,221.593301435407 C 210.180980318766,221.634950548663 213.864776192264,221.825714012118 214.206140350877,222.11961722488 C 214.433522196143,222.315385448232 214.943463190227,224.718874811857 214.995614035088,225.014354066986 C 215.050691465888,225.326414940986 215.235729455708,227.856203622165 215.258771929825,228.172248803828 C 215.289448843827,228.593006176054 215.508765519151,231.961106362892 215.521929824561,232.382775119617 C 215.532604993091,232.724713786423 215.521929824561,235.461722488038 215.521929824561,235.803827751196 C 215.521929824561,236.461722488038 215.521929824561,241.724880382775 215.521929824561,242.382775119617 C 215.521929824561,243.093301435407 215.521929824561,248.777511961722 215.521929824561,249.488038277512 C 215.521929824561,249.751196172249 215.55843014348,251.859002942307 215.521929824561,252.11961722488 C 215.49535719129,252.309347286465 215.100152960125,253.801175877174 214.995614035088,253.961722488038 C 214.883462554161,254.13396015128 213.599926442428,255.18445487225 213.416666666667,255.277511961722 C 213.223177484184,255.375763419749 211.526184456398,255.772834892679 211.311403508772,255.803827751196 C 210.685756742213,255.894108485739 205.626511033331,256.027571623789 204.995614035088,256.066985645933 C 204.363079049669,256.106501998035 199.313585988676,256.590385416954 198.679824561404,256.593301435407 C 197.967359136072,256.596579581153 192.286547541291,256.093319429145 191.574561403509,256.066985645933 C 191.074903050925,256.048505096891 187.074561403509,256.066985645933 186.574561403509,256.066985645933 C 186.100877192982,256.066985645933 182.311403508772,256.066985645933 181.837719298246,256.066985645933 C 181.179824561404,256.066985645933 175.915849908065,256.099757818223 175.258771929825,256.066985645933 C 174.994629851637,256.053811395719 172.88832032033,255.845745668041 172.627192982456,255.803827751196 C 172.387640256501,255.765373136186 170.49258805153,255.342275278181 170.258771929825,255.277511961722 C 170.178573661713,255.255298327439 169.544902720427,255.049127205247 169.469298245614,255.014354066986 C 169.329890482273,254.950235568162 168.234595444247,254.355151860635 168.15350877193,254.224880382775 C 167.98605535242,253.95585461308 167.938741948291,251.380153039995 167.890350877193,251.066985645933 C 167.79968578134,250.48023790185 166.65914232437,245.865167594401 166.574561403509,245.277511961722 C 166.514460627488,244.859940727013 166.324567814183,241.488654402658 166.311403508772,241.066985645933 C 166.299086006623,240.672441030387 166.323721010921,237.514161840426 166.311403508772,237.11961722488 C 166.298239203361,236.697948468155 166.061409919446,233.330759665816 166.048245614035,232.909090909091 C 166.026074110167,232.198910601109 166.083639560108,226.513471967695 166.048245614035,225.803827751196 C 166.035071363821,225.539685673009 165.774487299923,223.436506688189 165.785087719298,223.172248803828 C 167.100877192982,220.540669856459 166.311403508772,220.277511961722 166.311403508772,220.277511961722 Z" stroke="#0000FF" stroke-opacity="100" stroke-width="1" stroke-dasharray="0" stroke-miterlimit="10" fill="#0000FF" fill-opacity="0.4" />
  </g>
  <g groupType="layer" groupName="hotspot005">
    <circle cx="204.556220095693" cy="37.5849282296651" r="5.5" stroke="#0000FF" stroke-opacity="100" stroke-width="1" stroke-dasharray="0" stroke-miterlimit="10" fill="#0000FF" fill-opacity="0.4" />
    <text id="caption0050001" font-family="'Arial'" font-size="13.28" fill="#000000" enclose="False" lineSpacePercentage="100" x="55.9090909090907" y="41.3861818181818">
      <a xlink:href="ch05se060402">
        <tspan dy="0">AC100V スイッチ</tspan>
      </a>
    </text>
    <rect x="192.021929824561" y="25.4617224880383" width="24.5789473684215" height="23" stroke="#0000FF" stroke-opacity="100" stroke-width="1" stroke-dasharray="0" stroke-miterlimit="10" fill="#0000FF" fill-opacity="0.4" />
  </g>
</svg>