﻿<?xml version="1.0" encoding="utf-8" standalone="no"?>
<svg xmlns="http://www.w3.org/2000/svg" xmlns:xlink="http://www.w3.org/1999/xlink" width="420" height="275" viewBox="0 0 420 275">
  <g groupType="layer" groupName="image">
    <image preserveAspectRatio="none" width="420" height="275" x="0" y="0" xlink:href="zzivpi33053a.png" />
  </g>
  <g groupType="layer" groupName="hotspot001">
    <rect x="179.138440860215" y="139.159090909091" width="29.5" height="29.5" stroke="#0000FF" stroke-opacity="100" stroke-width="1" stroke-dasharray="0" stroke-miterlimit="10" fill="#0000FF" fill-opacity="0.4" />
    <circle cx="193.596774193548" cy="154.0" r="5.5" stroke="#0000FF" stroke-opacity="1" stroke-width="1" stroke-dasharray="0" stroke-miterlimit="10" fill="#0000FF" fill-opacity="0.4" />
    <text id="caption0010001" font-family="'Arial'" font-size="13.28" fill="#000000" enclose="False" lineSpacePercentage="100" x="329.354838709678" y="167.664774193548">
      <a xlink:href="ch04se020401">
        <tspan dy="0">パワースイッチ</tspan>
      </a>
    </text>
  </g>
  <g groupType="layer" groupName="hotspot002">
    <rect x="180.331989247312" y="165.659090909091" width="20.75" height="26.5" stroke="#0000FF" stroke-opacity="100" stroke-width="1" stroke-dasharray="0" stroke-miterlimit="10" fill="#0000FF" fill-opacity="0.4" />
    <circle cx="191.040322580645" cy="178.25" r="5.5" stroke="#0000FF" stroke-opacity="1" stroke-width="1" stroke-dasharray="0" stroke-miterlimit="10" fill="#0000FF" fill-opacity="0.4" />
    <text id="caption0020001" font-family="'Arial'" font-size="13.28" fill="#000000" enclose="False" lineSpacePercentage="100" x="256.451612903225" y="184.438967741935">
      <a xlink:href="ch04se020405">
        <tspan dy="0">パーキングブレーキスイッチ</tspan>
      </a>
    </text>
  </g>
  <g groupType="layer" groupName="hotspot003">
    <rect x="109.702956989248" y="90.8284457478005" width="26" height="22.5" stroke="#0000FF" stroke-opacity="100" stroke-width="1" stroke-dasharray="0" stroke-miterlimit="10" fill="#0000FF" fill-opacity="0.4" />
    <circle cx="122.91129032258" cy="102.1693548387096" r="5.5" stroke="#0000FF" stroke-opacity="1" stroke-width="1" stroke-dasharray="0" stroke-miterlimit="10" fill="#0000FF" fill-opacity="0.4" />
    <text id="caption0030001" font-family="'Arial'" font-size="13.28" fill="#000000" enclose="False" lineSpacePercentage="100" x="300.967741935484" y="203.148645161289">
      <a xlink:href="ch07se010402">
        <tspan dy="0">非常点滅灯スイッチ</tspan>
      </a>
    </text>
  </g>
  <g groupType="layer" groupName="hotspot004">
    <path d="M 27.0967741935484,71.1935483870968 C 36.6773983537063,70.9025251530599 36.6773983537063,70.9025251530599 37.741935483871,70.8709677419355 C 39.9676989899503,70.8049866389408 57.7734924456116,70.2580679022694 60,70.2258064516129 C 60.4838201809678,70.2187960370899 64.3574404886472,70.2759171427088 64.8387096774193,70.2258064516129 C 65.4616801674897,70.1609415433285 70.4614859079346,69.3042717807414 70.9677419354839,68.9354838709677 C 71.3881646828506,68.6292221816536 73.3045685215005,64.8788154041519 73.5483870967742,64.4193548387097 C 74.50865900942,62.6097836218024 81.8321546893299,47.9392012069984 82.5806451612903,46.0322580645161 C 82.7036962368883,45.7187585430431 83.7494237965797,43.0766510993959 83.5483870967742,42.8064516129032 C 83.0284798612809,42.1076803527802 75.7096524299637,42.8130492854263 74.8387096774194,42.8064516129032 C 72.7094941462916,42.7903221178654 55.6776026279019,42.5000004627798 53.5483870967742,42.4838709677419 C 52.7742157611792,42.4780063699437 46.578697451984,42.4289891457362 45.8064516129032,42.4838709677419 C 45.1238762759568,42.5323801033721 39.6264518138484,43.1122075186169 39.0322580645161,43.4516129032258 C 38.3148376315991,43.8614057666379 34.3656691190898,49.2414911043904 33.8709677419355,49.9032258064516 C 32.8582729661181,51.2578516609607 25.1565156908964,62.3837778240496 24.1935483870968,63.7741935483871 C 23.8369372955968,64.2890995759731 20.4709807645243,68.3338520630837 20.6451612903226,68.9354838709677 C 20.7817997364661,69.4074426907214 24.6799844079732,70.772175995966 25.1612903225806,70.8709677419355 C 25.3508860108648,70.9098837172132 27.0967741935484,70.8709677419355 27.0967741935484,70.8709677419355 Z" stroke="#0000FF" stroke-opacity="100" stroke-width="1" stroke-dasharray="0" stroke-miterlimit="10" fill="#0000FF" fill-opacity="0.4" />
    <circle cx="56.0645161290322" cy="58.3225806451613" r="5.5" stroke="#0000FF" stroke-opacity="1" stroke-width="1" stroke-dasharray="0" stroke-miterlimit="10" fill="#0000FF" fill-opacity="0.4" />
    <text id="caption0040001" font-family="'Arial'" font-size="13.28" fill="#000000" enclose="False" lineSpacePercentage="100" x="232.25806451613" y="220.245419354838">
      <a xlink:href="ch03se0204020505">
        <tspan dy="0">トランクオープナーメインスイッチ</tspan>
      </a>
    </text>
  </g>
  <g groupType="layer" groupName="hotspot005">
    <path d="M 69.3548387096774,119.903225806452 C 78.6924715294527,129.25240794585 78.6924715294527,129.25240794585 80,129.903225806452 C 83.2521315001901,131.521963228255 112.223221886684,135.434650447082 115.806451612903,136.032258064516 C 119.577993540199,136.661272210255 149.847795734254,141.199099659287 153.548387096774,142.161290322581 C 156.205024252732,142.852042479955 177.352140566856,149.638881134385 179.354838709677,151.516129032258 C 179.765861725042,151.901405312828 181.050264426343,156.705973038812 181.612903225806,156.677419354839 C 183.507940721493,156.581246993778 186.858157322161,140.425490763144 187.41935483871,138.612903225806 C 187.887235646939,137.101715280478 192.399631522392,124.963951626691 191.935483870968,123.451612903226 C 191.800967760363,123.013317196304 188.814022765263,120.71551551706 188.387096774194,120.548387096774 C 187.394010472262,120.159624294038 178.807684410798,119.942419487443 177.741935483871,119.903225806452 C 172.777130829137,119.720641555221 133.032661145565,119.270608963916 128.064516129032,119.258064516129 C 123.99988495084,119.247801419255 91.4839669722486,119.564516002044 87.4193548387097,119.58064516129 C 86.0967846064623,119.58589337322 75.5161290322581,119.58064516129 74.1935483870968,119.58064516129 C 73.741935483871,119.58064516129 69.6774193548387,119.58064516129 69.6774193548387,119.58064516129 Z" stroke="#0000FF" stroke-opacity="100" stroke-width="1" stroke-dasharray="0" stroke-miterlimit="10" fill="#0000FF" fill-opacity="0.4" />
    <circle cx="132.193548387097" cy="128.967741935484" r="5.5" stroke="#0000FF" stroke-opacity="1" stroke-width="1" stroke-dasharray="0" stroke-miterlimit="10" fill="#0000FF" fill-opacity="0.4" />
    <text id="caption0050001" font-family="'Arial'" font-size="13.28" fill="#000000" enclose="False" lineSpacePercentage="100" x="333.225806451613" y="239.277677419354">
      <a xlink:href="ch05se030401">
        <tspan dy="0">オートエアコン</tspan>
      </a>
    </text>
  </g>
</svg>