<svg xmlns="http://www.w3.org/2000/svg" width="100" height="100" viewBox="0 0 100 100">
  <defs>
	<style type="text/css"><![CDATA[
  #blue {fill: #263b74;}
  #red {fill: #c00;}
  #yellow {fill: #fc0;}
  #white {fill: #fff;}
  #grey {fill: #ccc;}
  ]]></style>
  </defs>
  <g class="target" id="blue">
  <path d="M43.053,67.134a24.1,24.1,0,1,1,23.9-24.3v.2A24.037,24.037,0,0,1,43.053,67.134Zm0-41.2a17.1,17.1,0,1,0,16.962,17.24c0-.047,0-.094,0-.141a17.062,17.062,0,0,0-16.963-17.1ZM75.467,81.069a5.775,5.775,0,0,1-4.08-1.692L55.4,63.4a5.871,5.871,0,0,1-.021-8.249,5.752,5.752,0,0,1,8.134-.081l.047.047,15.99,15.977a5.872,5.872,0,0,1,.021,8.25A5.7,5.7,0,0,1,75.467,81.069Z"/>
  </g>
</svg>
