<svg xmlns="http://www.w3.org/2000/svg" width="100" height="100" viewBox="0 0 100 100">
  <defs>
	<style type="text/css"><![CDATA[
  #blue {fill: #263b74;}
  #red {fill: #c00;}
  #yellow {fill: #fc0;}
  #white {fill: #fff;}
  #grey {fill: #ccc;}
  ]]></style>
  </defs>
  <g class="target" id="blue">
  <circle class="cls-1" cx="50" cy="50" r="15"/>
  </g>
</svg>
