<svg xmlns="http://www.w3.org/2000/svg" width="100" height="100" viewBox="0 0 100 100">
  <defs>
	<style type="text/css"><![CDATA[
  #blue {fill: #263b74;}
  #red {fill: #c00;}
  #yellow {fill: #fc0;}
  #white {fill: #fff;}
  #grey {fill: #ccc;}
  ]]></style>
  </defs>
  <g class="target" id="white">
  <path class="cls-1" d="M25.292,85A2.8,2.8,0,0,1,22.5,82.192V22.259A7.245,7.245,0,0,1,29.716,15H76.773a.73.73,0,0,1,.727.732v62.6a.73.73,0,0,1-.727.732H75.225a.73.73,0,0,1-.727-.732V18.4c0-.532-.255-.88-.731-.88H29.828a3.292,3.292,0,0,0,0,6.583H69.1a.726.726,0,0,1,.625.717V84.268A.73.73,0,0,1,69,85Z"/>
  </g>
</svg>
